Modelling the City of Melbourne Pedestrian Data
…
We use the daily data sourced from `pedestrian.melbourne.vic.gov.au` rather than the data available at the Open Data Platform as missing values are explicit

---

## Format of the data
#### Variables available:
- Time and Date
- Sensor ID/Location
- Hourly Pedestrian Count

```
## # A tibble: 1,409,712 x 5
##                        Sensor  Date_Time       Date  Time Count
##                         <chr>     <date>     <date> <int> <int>
##  1              State Library 2014-01-01 2014-01-01     0  1709
##  2      Collins Place (South) 2014-01-01 2014-01-01     0   893
##  3      Collins Place (North) 2014-01-01 2014-01-01     0   404
##  4          Flagstaff Station 2014-01-01 2014-01-01     0   462
##  5          Melbourne Central 2014-01-01 2014-01-01     0  3088
##  6           Town Hall (West) 2014-01-01 2014-01-01     0  3227
##  7 Bourke Street Mall (North) 2014-01-01 2014-01-01     0     0
##  8 Bourke Street Mall (South) 2014-01-01 2014-01-01     0   936
##  9       Australia on Collins 2014-01-01 2014-01-01     0   969
## 10     Southern Cross Station 2014-01-01 2014-01-01     0   886
## # ... with 1,409,702 more rows
```
…
